exercise-03
…
There is no significant difference in group size among folivores, frugivores, and omnivores.

In one line of code, using {dplyr} verbs and the forward pipe (|> or %>%) operator

d1 <- d %>% mutate (Binomial = paste(Genus, Species)) %>% select(Binomial, Family, Brain_Size_Species_Mean, Body_mass_male_mean) %>% group_by(Family) %>% 
  mutate(Brain_size_family_mean = mean(Brain_Size_Species_Mean, na.rm=T),
         Body_mass_male_family_mean = mean(Body_mass_male_mean, na.rm=T)) %>% 
  arrange(Brain_size_family_mean) %>% 
  print()

# A tibble: 213 × 6
# Groups:   Family [14]
   Binomial            Family        Brain_Size_Species_Mean Body_mass_male_mean
   <chr>               <chr>                           <dbl>               <dbl>
 1 Tarsius bancanus    Tarsiidae                        3.16                 128
 2 Tarsius dentatus    Tarsiidae                       NA                     NA
 3 Tarsius syrichta    Tarsiidae                        3.36                 134
 4 Cheirogaleus major  Cheirogalidae                    5.81                 438
 5 Cheirogaleus medius Cheirogalidae                    2.6                  140
 6 Microcebus murinus  Cheirogalidae                    1.63                  63
 7 Microcebus myoxinus Cheirogalidae                   NA                     31
 8 Microcebus rufus    Cheirogalidae                    1.72                  43
 9 Mirza coquereli     Cheirogalidae                    5.8                  311
10 Phaner furcifer     Cheirogalidae                    6.68                 328
# ℹ 203 more rows
# ℹ 2 more variables: Brain_size_family_mean <dbl>,
#   Body_mass_male_family_mean <dbl>
